{
  "Db": {
    "Dialect": "mysql",
    "Dsn": "root:root@tcp(localhost:3306)/anonymista_bot?parseTime=true"
  },
  "Bot": {
    "Token": "BOT TOKEN",
    "ChatId": CHAT ID,
    "Minutes": "1440",
    "QuickDeleteMinutes": "360",
    "YourCodeText": "---\nВаш код: *%s*\n\nУ мэтах бяспекі, ён будзе працаваць толькі 6 гадзінаў (пасля чаго выдаліцца гэтае паведамленне, а код выдаліцца з базы дадзеных).\n\nКаб даслаць паведамленне ад выдуманае асобы, напішыце гэтае паведамленне *сюды* па наступнай схеме: *код прабел паведамленне*, напрыклад:\n\n%s Прывітанне!\n\nКаб даслаць здымак: выбіраеце здымак і дадаеце ў анатацыю да здымку ваш код (акрамя коду яшчэ можна напісаць паведамленне).",
    "WrongCodeText": "Гэты код не існаваў альбо быў дэактываваны!",
    "RegisterText": "Пстрыкніце на /register, каб атрымаць код!",
    "Emojis": ":beer: :bearded_person: :beetle: :bell: :bicycle: :bird: :black_cat: :black_joker: :blowfish: :boat: :boar: :bomb: :book: :bouquet: :bow: :bowling: :bread: :broccoli: :broken_heart: :bug: :burrito: :bus: :butterfly: :cactus: :camel: :camera: :capricorn: :carrot:️ :castle: :cat: :cheese: :chicken: :chipmunk: :cinema: :cloud_lightning: :cloud_tornado: :clown: :cockroach: :compass: :computer: :confused_face: :cool: :cow: :crocodile: :croissant: :cucumber: :dancer: :doughnut: :drum_with_drumsticks: :duck: :envelope: :fairy:",
    "CodeLength": 6,
    "ResizeXMin": 10,
    "ResizeXMax": 200,
    "AdminCode": "abc123"
  }
}